<svg width="18" height="10" viewBox="0 0 18 10" fill="none" xmlns="http://www.w3.org/2000/svg">
<path d="M16.6972 0.03125H1.30346C0.841742 0.03125 0.58393 0.51875 0.869867 0.851562L8.56674 9.77656C8.78705 10.032 9.21127 10.032 9.43393 9.77656L17.1308 0.851562C17.4167 0.51875 17.1589 0.03125 16.6972 0.03125Z" fill="#979797"/>
</svg>
