<svg width="14" height="18" viewBox="0 0 14 18" fill="none" xmlns="http://www.w3.org/2000/svg">
<path fill-rule="evenodd" clip-rule="evenodd" d="M0.333496 2.09334V15.9067C0.333496 16.96 1.4935 17.6 2.38683 17.0267L13.2402 10.12C14.0668 9.60001 14.0668 8.40001 13.2402 7.86667L2.38683 0.973339C1.4935 0.400006 0.333496 1.04001 0.333496 2.09334Z" fill="white"/>
</svg>
